A .fancy[fun] intro to Multilevel Models in R
…
class: white

### Extract model statistics with `broom.mixed`

The function `augment()` gives us fitted values (incl. random intercepts and slopes) for every single data point.

--

```r
broom.mixed::augment(rs_preds_model)
```

```
## # A tibble: 39,712 × 15
##       income education net_migration cntry .fitted .resid    .hat .cooksd .fixed
##    <dbl+lbl>     <dbl>         <dbl> <fct>   <dbl>  <dbl>   <dbl>   <dbl>  <dbl>
##  1 3 [C - 3…         3             4 AT       4.78 -1.78  5.05e-4 8.38e-5   4.95
##  2 5 [F - 5…         3             4 AT       4.78  0.218 5.05e-4 1.26e-6   4.95
##  3 9 [D - 9…         2             4 AT       4.06  4.94  1.09e-3 1.39e-3   4.16
##  4 6 [S - 6…         3             4 AT       4.78  1.22  5.05e-4 3.92e-5   4.95
##  5 1 [J - 1…         2             4 AT       4.06 -3.06  1.09e-3 5.35e-4   4.16
##  6 5 [F - 5…         3             4 AT       4.78  0.218 5.05e-4 1.26e-6   4.95
##  7 7 [K - 7…         3             4 AT       4.78  2.22  5.05e-4 1.30e-4   4.95
##  8 2 [R - 2…         3             4 AT       4.78 -2.78  5.05e-4 2.04e-4   4.95
##  9 3 [C - 3…         3             4 AT       4.78 -1.78  5.05e-4 8.38e-5   4.95
## 10 4 [M - 4…         3             4 AT       4.78 -0.782 5.05e-4 1.61e-5   4.95
## # … with 39,702 more rows, and 6 more variables: .mu <dbl>, .offset <dbl>,
## #   .sqrtXwt <dbl>, .sqrtrwt <dbl>, .weights <dbl>, .wtres <dbl>
```
…
